// Vitest Snapshot v1, https://vitest.dev/guide/snapshot.html

exports[`Rating > Test can add multiple element in the ratings array 1`] = `
[
  {
    "comment": "test commentaire",
    "date": "2021-01-01",
    "id": 1,
    "name": "test",
    "rating": 2,
    "updatedAt": "2021-01-01",
  },
  {
    "comment": "Ceci est un commentaire",
    "date": "2021-02-02",
    "id": 2,
    "name": "Deuxième test",
    "rating": 4,
    "updatedAt": "2021-02-02",
  },
]
`;

exports[`Rating > Test can add rating in the ratings array 1`] = `
[
  {
    "comment": "test commentaire",
    "date": "2021-01-01",
    "id": 1,
    "name": "test",
    "rating": 2,
    "updatedAt": "2021-01-01",
  },
]
`;
